^C:\USERS\CARMENSOLERCHORRO\DOCUMENTS\PLATILLA_3PROJECTS\PLATILLA_3PROJECTS\GAMESERVER\SOURCE.CPP
/c /IC:\USERS\CARMENSOLERCHORRO\DOCUMENTS\PLATILLA_3PROJECTS\PLATILLA_3PROJECTS\\DEPS64\INCLUDE /Zi /nologo /W3 /WX- /diagnostics:classic /sdl /O2 /Oi /GL /D NDEBUG /D _CONSOLE /D _UNICODE /D UNICODE /Gm- /EHsc /MD /GS /Gy /fp:precise /Zc:wchar_t /Zc:forScope /Zc:inline /Fo"X64\RELEASE\\" /Fd"X64\RELEASE\VC141.PDB" /Gd /TP /FC C:\USERS\CARMENSOLERCHORRO\DOCUMENTS\PLATILLA_3PROJECTS\PLATILLA_3PROJECTS\GAMESERVER\SOURCE.CPP
^C:\USERS\ALEXBALASTEGUIGAYA\DOWNLOADS\PLATILLA_3PROJECTS\GAMESERVER\NETWORKMANAGERSERVER.CPP
/c /IC:\USERS\ALEXBALASTEGUIGAYA\DOWNLOADS\PLATILLA_3PROJECTS\\DEPS64\INCLUDE /Zi /nologo /W3 /WX- /diagnostics:classic /sdl /O2 /Oi /GL /D NDEBUG /D _CONSOLE /D _UNICODE /D UNICODE /Gm- /EHsc /MD /GS /Gy /fp:precise /Zc:wchar_t /Zc:forScope /Zc:inline /Fo"X64\RELEASE\\" /Fd"X64\RELEASE\VC141.PDB" /Gd /TP /FC C:\USERS\ALEXBALASTEGUIGAYA\DOWNLOADS\PLATILLA_3PROJECTS\GAMESERVER\NETWORKMANAGERSERVER.CPP
^C:\USERS\ALEXBALASTEGUIGAYA\DOWNLOADS\PLATILLA_3PROJECTS\GAMESERVER\GAME.CPP
/c /IC:\USERS\ALEXBALASTEGUIGAYA\DOWNLOADS\PLATILLA_3PROJECTS\\DEPS64\INCLUDE /Zi /nologo /W3 /WX- /diagnostics:classic /sdl /O2 /Oi /GL /D NDEBUG /D _CONSOLE /D _UNICODE /D UNICODE /Gm- /EHsc /MD /GS /Gy /fp:precise /Zc:wchar_t /Zc:forScope /Zc:inline /Fo"X64\RELEASE\\" /Fd"X64\RELEASE\VC141.PDB" /Gd /TP /FC C:\USERS\ALEXBALASTEGUIGAYA\DOWNLOADS\PLATILLA_3PROJECTS\GAMESERVER\GAME.CPP
^C:\USERS\ALEXBALASTEGUIGAYA\DOWNLOADS\PLATILLA_3PROJECTS\GAMESERVER\SERVER_MAIN.CPP
/c /IC:\USERS\ALEXBALASTEGUIGAYA\DOWNLOADS\PLATILLA_3PROJECTS\\DEPS64\INCLUDE /Zi /nologo /W3 /WX- /diagnostics:classic /sdl /O2 /Oi /GL /D NDEBUG /D _CONSOLE /D _UNICODE /D UNICODE /Gm- /EHsc /MD /GS /Gy /fp:precise /Zc:wchar_t /Zc:forScope /Zc:inline /Fo"X64\RELEASE\\" /Fd"X64\RELEASE\VC141.PDB" /Gd /TP /FC C:\USERS\ALEXBALASTEGUIGAYA\DOWNLOADS\PLATILLA_3PROJECTS\GAMESERVER\SERVER_MAIN.CPP
