^C:\USERS\ALEXBALASTEGUIGAYA\DOWNLOADS\PLATILLA_3PROJECTS\GAMESERVER\GAME.CPP|C:\USERS\ALEXBALASTEGUIGAYA\DOWNLOADS\PLATILLA_3PROJECTS\GAMESERVER\NETWORKMANAGERSERVER.CPP|C:\USERS\ALEXBALASTEGUIGAYA\DOWNLOADS\PLATILLA_3PROJECTS\GAMESERVER\SERVER_MAIN.CPP
C:\USERS\ALEXBALASTEGUIGAYA\DOWNLOADS\PLATILLA_3PROJECTS\GAMESERVER\X64\RELEASE\VC141.PDB
C:\USERS\ALEXBALASTEGUIGAYA\DOWNLOADS\PLATILLA_3PROJECTS\GAMESERVER\X64\RELEASE\SERVER_MAIN.OBJ
C:\USERS\ALEXBALASTEGUIGAYA\DOWNLOADS\PLATILLA_3PROJECTS\GAMESERVER\X64\RELEASE\NETWORKMANAGERSERVER.OBJ
C:\USERS\ALEXBALASTEGUIGAYA\DOWNLOADS\PLATILLA_3PROJECTS\GAMESERVER\X64\RELEASE\GAME.OBJ
^C:\USERS\ALEXBALASTEGUIGAYA\DOWNLOADS\PLATILLA_3PROJECTS\GAMESERVER\NETWORKMANAGERSERVER.CPP
C:\USERS\ALEXBALASTEGUIGAYA\DOWNLOADS\PLATILLA_3PROJECTS\GAMESERVER\X64\RELEASE\VC141.PDB
^C:\USERS\ALEXBALASTEGUIGAYA\DOWNLOADS\PLATILLA_3PROJECTS\GAMESERVER\GAME.CPP|C:\USERS\ALEXBALASTEGUIGAYA\DOWNLOADS\PLATILLA_3PROJECTS\GAMESERVER\SERVER_MAIN.CPP
C:\USERS\ALEXBALASTEGUIGAYA\DOWNLOADS\PLATILLA_3PROJECTS\GAMESERVER\X64\RELEASE\VC141.PDB
C:\USERS\ALEXBALASTEGUIGAYA\DOWNLOADS\PLATILLA_3PROJECTS\GAMESERVER\X64\RELEASE\SERVER_MAIN.OBJ
C:\USERS\ALEXBALASTEGUIGAYA\DOWNLOADS\PLATILLA_3PROJECTS\GAMESERVER\X64\RELEASE\GAME.OBJ
^C:\USERS\ALEXBALASTEGUIGAYA\DOWNLOADS\PLATILLA_3PROJECTS\GAMESERVER\GAME.CPP
C:\USERS\ALEXBALASTEGUIGAYA\DOWNLOADS\PLATILLA_3PROJECTS\GAMESERVER\X64\RELEASE\VC141.PDB
^C:\USERS\ALEXBALASTEGUIGAYA\DOWNLOADS\PLATILLA_3PROJECTS\GAMESERVER\SERVER_MAIN.CPP
C:\USERS\ALEXBALASTEGUIGAYA\DOWNLOADS\PLATILLA_3PROJECTS\GAMESERVER\X64\RELEASE\VC141.PDB
