^C:\Users\carmensolerchorro\Documents\Platilla_3Projects\Platilla_3Projects\GameServer\GameServer.vcxproj
C:\Users\carmensolerchorro\Documents\Platilla_3Projects\Platilla_3Projects\x64\Release\GameServer.ipdb
C:\Users\carmensolerchorro\Documents\Platilla_3Projects\Platilla_3Projects\x64\Release\GameServer.iobj
^C:\Users\alexbalasteguigaya\Downloads\Platilla_3Projects\GameServer\GameServer.vcxproj
C:\Users\alexbalasteguigaya\Downloads\Platilla_3Projects\x64\Release\GameServer.ipdb
C:\Users\alexbalasteguigaya\Downloads\Platilla_3Projects\x64\Release\GameServer.iobj
^C:\Users\alexbalasteguigaya\Downloads\Platilla_3Projects\GameServer\GameServer.vcxproj
C:\Users\alexbalasteguigaya\Downloads\Platilla_3Projects\x64\Release\GameServer.ipdb
C:\Users\alexbalasteguigaya\Downloads\Platilla_3Projects\x64\Release\GameServer.iobj
