^C:\USERS\ALEXBALASTEGUIGAYA\DOWNLOADS\PLATILLA_3PROJECTS\GAMESERVER\X64\RELEASE\GAME.OBJ|C:\USERS\ALEXBALASTEGUIGAYA\DOWNLOADS\PLATILLA_3PROJECTS\GAMESERVER\X64\RELEASE\NETWORKMANAGERSERVER.OBJ|C:\USERS\ALEXBALASTEGUIGAYA\DOWNLOADS\PLATILLA_3PROJECTS\GAMESERVER\X64\RELEASE\SERVER_MAIN.OBJ
C:\USERS\ALEXBALASTEGUIGAYA\DOWNLOADS\PLATILLA_3PROJECTS\X64\RELEASE\GAMESERVER.EXE
C:\USERS\ALEXBALASTEGUIGAYA\DOWNLOADS\PLATILLA_3PROJECTS\X64\RELEASE\GAMESERVER.PDB
