^D:\USERS\ABALA\DOCUMENTS\SOURCETREE\UDP_REDES\UDPSTARTED\PLANTILLA_3PROJECTS\GAMECLIENT\X64\DEBUG\CLIENTMAIN.OBJ|D:\USERS\ABALA\DOCUMENTS\SOURCETREE\UDP_REDES\UDPSTARTED\PLANTILLA_3PROJECTS\GAMECLIENT\X64\DEBUG\LOBBY.OBJ|D:\USERS\ABALA\DOCUMENTS\SOURCETREE\UDP_REDES\UDPSTARTED\PLANTILLA_3PROJECTS\GAMECLIENT\X64\DEBUG\MYBUTTON.OBJ|D:\USERS\ABALA\DOCUMENTS\SOURCETREE\UDP_REDES\UDPSTARTED\PLANTILLA_3PROJECTS\GAMECLIENT\X64\DEBUG\NETWORKMANAGERCLIENT.OBJ
C:\WINDOWS\GLOBALIZATION\SORTING\SORTDEFAULT.NLS
D:\USERS\ABALA\DOCUMENTS\SOURCETREE\UDP_REDES\UDPSTARTED\PLANTILLA_3PROJECTS\X64\DEBUG\GAMELIB.LIB
D:\USERS\ABALA\DOCUMENTS\SOURCETREE\UDP_REDES\UDPSTARTED\PLANTILLA_3PROJECTS\DEPS64\LIB\SFML-GRAPHICS-D.LIB
D:\USERS\ABALA\DOCUMENTS\SOURCETREE\UDP_REDES\UDPSTARTED\PLANTILLA_3PROJECTS\DEPS64\LIB\SFML-WINDOW-D.LIB
D:\USERS\ABALA\DOCUMENTS\SOURCETREE\UDP_REDES\UDPSTARTED\PLANTILLA_3PROJECTS\DEPS64\LIB\SFML-SYSTEM-D.LIB
D:\USERS\ABALA\DOCUMENTS\SOURCETREE\UDP_REDES\UDPSTARTED\PLANTILLA_3PROJECTS\DEPS64\LIB\SFML-NETWORK-D.LIB
C:\PROGRAM FILES (X86)\WINDOWS KITS\10\LIB\10.0.16299.0\UM\X64\WS2_32.LIB
C:\PROGRAM FILES (X86)\WINDOWS KITS\10\LIB\10.0.16299.0\UM\X64\KERNEL32.LIB
C:\PROGRAM FILES (X86)\WINDOWS KITS\10\LIB\10.0.16299.0\UM\X64\USER32.LIB
C:\PROGRAM FILES (X86)\WINDOWS KITS\10\LIB\10.0.16299.0\UM\X64\GDI32.LIB
C:\PROGRAM FILES (X86)\WINDOWS KITS\10\LIB\10.0.16299.0\UM\X64\WINSPOOL.LIB
C:\PROGRAM FILES (X86)\WINDOWS KITS\10\LIB\10.0.16299.0\UM\X64\COMDLG32.LIB
C:\PROGRAM FILES (X86)\WINDOWS KITS\10\LIB\10.0.16299.0\UM\X64\ADVAPI32.LIB
C:\PROGRAM FILES (X86)\WINDOWS KITS\10\LIB\10.0.16299.0\UM\X64\SHELL32.LIB
C:\PROGRAM FILES (X86)\WINDOWS KITS\10\LIB\10.0.16299.0\UM\X64\OLE32.LIB
C:\PROGRAM FILES (X86)\WINDOWS KITS\10\LIB\10.0.16299.0\UM\X64\OLEAUT32.LIB
C:\PROGRAM FILES (X86)\WINDOWS KITS\10\LIB\10.0.16299.0\UM\X64\UUID.LIB
C:\PROGRAM FILES (X86)\WINDOWS KITS\10\LIB\10.0.16299.0\UM\X64\ODBC32.LIB
C:\PROGRAM FILES (X86)\WINDOWS KITS\10\LIB\10.0.16299.0\UM\X64\ODBCCP32.LIB
D:\USERS\ABALA\DOCUMENTS\SOURCETREE\UDP_REDES\UDPSTARTED\PLANTILLA_3PROJECTS\GAMECLIENT\X64\DEBUG\CLIENTMAIN.OBJ
D:\USERS\ABALA\DOCUMENTS\SOURCETREE\UDP_REDES\UDPSTARTED\PLANTILLA_3PROJECTS\GAMECLIENT\X64\DEBUG\LOBBY.OBJ
D:\USERS\ABALA\DOCUMENTS\SOURCETREE\UDP_REDES\UDPSTARTED\PLANTILLA_3PROJECTS\GAMECLIENT\X64\DEBUG\MYBUTTON.OBJ
D:\USERS\ABALA\DOCUMENTS\SOURCETREE\UDP_REDES\UDPSTARTED\PLANTILLA_3PROJECTS\GAMECLIENT\X64\DEBUG\NETWORKMANAGERCLIENT.OBJ
C:\WINDOWS\SYSTEM32\TZRES.DLL
C:\PROGRAM FILES (X86)\MICROSOFT VISUAL STUDIO\2017\COMMUNITY\VC\TOOLS\MSVC\14.12.25827\LIB\X64\MSVCPRTD.LIB
C:\PROGRAM FILES (X86)\MICROSOFT VISUAL STUDIO\2017\COMMUNITY\VC\TOOLS\MSVC\14.12.25827\LIB\X64\MSVCRTD.LIB
C:\PROGRAM FILES (X86)\MICROSOFT VISUAL STUDIO\2017\COMMUNITY\VC\TOOLS\MSVC\14.12.25827\LIB\X64\OLDNAMES.LIB
C:\PROGRAM FILES (X86)\MICROSOFT VISUAL STUDIO\2017\COMMUNITY\VC\TOOLS\MSVC\14.12.25827\LIB\X64\VCRUNTIMED.LIB
C:\PROGRAM FILES (X86)\WINDOWS KITS\10\LIB\10.0.16299.0\UCRT\X64\UCRTD.LIB
C:\PROGRAM FILES (X86)\MICROSOFT VISUAL STUDIO\2017\COMMUNITY\VC\TOOLS\MSVC\14.12.25827\BIN\HOSTX86\X64\LINK.EXE
C:\PROGRAM FILES (X86)\WINDOWS KITS\10\BIN\10.0.16299.0\X86\RC.EXE
C:\PROGRAM FILES (X86)\MICROSOFT VISUAL STUDIO\2017\COMMUNITY\VC\TOOLS\MSVC\14.12.25827\BIN\HOSTX86\X86\CVTRES.EXE
