^C:\USERS\ALEXBALASTEGUIGAYA\DOWNLOADS\PLATILLA_3PROJECTS\GAMECLIENT\X64\RELEASE\GAME.OBJ|C:\USERS\ALEXBALASTEGUIGAYA\DOWNLOADS\PLATILLA_3PROJECTS\GAMECLIENT\X64\RELEASE\NETWORKMANAGERSERVER.OBJ|C:\USERS\ALEXBALASTEGUIGAYA\DOWNLOADS\PLATILLA_3PROJECTS\GAMECLIENT\X64\RELEASE\SERVER_MAIN.OBJ
C:\USERS\ALEXBALASTEGUIGAYA\DOWNLOADS\PLATILLA_3PROJECTS\X64\RELEASE\GAMECLIENT.EXE
C:\USERS\ALEXBALASTEGUIGAYA\DOWNLOADS\PLATILLA_3PROJECTS\X64\RELEASE\GAMECLIENT.PDB
