^D:\USERS\ABALA\DOCUMENTS\SOURCETREE\UDP_REDES\UDPSTARTED\PLANTILLA_3PROJECTS\GAMESERVER\NETWORKMANAGERSERVER.CPP|D:\USERS\ABALA\DOCUMENTS\SOURCETREE\UDP_REDES\UDPSTARTED\PLANTILLA_3PROJECTS\GAMESERVER\SERVERMAIN.CPP
D:\USERS\ABALA\DOCUMENTS\SOURCETREE\UDP_REDES\UDPSTARTED\PLANTILLA_3PROJECTS\GAMESERVER\X64\DEBUG\VC141.PDB
D:\USERS\ABALA\DOCUMENTS\SOURCETREE\UDP_REDES\UDPSTARTED\PLANTILLA_3PROJECTS\GAMESERVER\X64\DEBUG\VC141.IDB
D:\USERS\ABALA\DOCUMENTS\SOURCETREE\UDP_REDES\UDPSTARTED\PLANTILLA_3PROJECTS\GAMESERVER\X64\DEBUG\NETWORKMANAGERSERVER.OBJ
D:\USERS\ABALA\DOCUMENTS\SOURCETREE\UDP_REDES\UDPSTARTED\PLANTILLA_3PROJECTS\GAMESERVER\X64\DEBUG\SERVERMAIN.OBJ
^D:\USERS\ABALA\DOCUMENTS\SOURCETREE\UDP_REDES\UDPSTARTED\PLANTILLA_3PROJECTS\GAMESERVER\NETWORKMANAGERSERVER.CPP
D:\USERS\ABALA\DOCUMENTS\SOURCETREE\UDP_REDES\UDPSTARTED\PLANTILLA_3PROJECTS\GAMESERVER\X64\DEBUG\VC141.PDB
D:\USERS\ABALA\DOCUMENTS\SOURCETREE\UDP_REDES\UDPSTARTED\PLANTILLA_3PROJECTS\GAMESERVER\X64\DEBUG\VC141.IDB
^D:\USERS\ABALA\DOCUMENTS\SOURCETREE\UDP_REDES\UDPSTARTED\PLANTILLA_3PROJECTS\GAMESERVER\SERVERMAIN.CPP
D:\USERS\ABALA\DOCUMENTS\SOURCETREE\UDP_REDES\UDPSTARTED\PLANTILLA_3PROJECTS\GAMESERVER\X64\DEBUG\VC141.PDB
