^D:\USERS\ABALA\DOCUMENTS\SOURCETREE\UDP_REDES\UDPSTARTED\PLANTILLA_3PROJECTS\GAMELIB\X64\DEBUG\DEFINITION.OBJ|D:\USERS\ABALA\DOCUMENTS\SOURCETREE\UDP_REDES\UDPSTARTED\PLANTILLA_3PROJECTS\GAMELIB\X64\DEBUG\ENEMY.OBJ|D:\USERS\ABALA\DOCUMENTS\SOURCETREE\UDP_REDES\UDPSTARTED\PLANTILLA_3PROJECTS\GAMELIB\X64\DEBUG\MOVEMENTPROCESSOR.OBJ|D:\USERS\ABALA\DOCUMENTS\SOURCETREE\UDP_REDES\UDPSTARTED\PLANTILLA_3PROJECTS\GAMELIB\X64\DEBUG\MOVEMENTQUEUER.OBJ|D:\USERS\ABALA\DOCUMENTS\SOURCETREE\UDP_REDES\UDPSTARTED\PLANTILLA_3PROJECTS\GAMELIB\X64\DEBUG\PLAYER.OBJ|D:\USERS\ABALA\DOCUMENTS\SOURCETREE\UDP_REDES\UDPSTARTED\PLANTILLA_3PROJECTS\GAMELIB\X64\DEBUG\POWERUP.OBJ
C:\WINDOWS\GLOBALIZATION\SORTING\SORTDEFAULT.NLS
C:\PROGRAM FILES (X86)\WINDOWS KITS\10\LIB\10.0.16299.0\UM\X64\WS2_32.LIB
C:\WINDOWS\SYSTEM32\TZRES.DLL
D:\USERS\ABALA\DOCUMENTS\SOURCETREE\UDP_REDES\UDPSTARTED\PLANTILLA_3PROJECTS\GAMELIB\X64\DEBUG\DEFINITION.OBJ
D:\USERS\ABALA\DOCUMENTS\SOURCETREE\UDP_REDES\UDPSTARTED\PLANTILLA_3PROJECTS\GAMELIB\X64\DEBUG\ENEMY.OBJ
D:\USERS\ABALA\DOCUMENTS\SOURCETREE\UDP_REDES\UDPSTARTED\PLANTILLA_3PROJECTS\GAMELIB\X64\DEBUG\MOVEMENTPROCESSOR.OBJ
D:\USERS\ABALA\DOCUMENTS\SOURCETREE\UDP_REDES\UDPSTARTED\PLANTILLA_3PROJECTS\GAMELIB\X64\DEBUG\MOVEMENTQUEUER.OBJ
D:\USERS\ABALA\DOCUMENTS\SOURCETREE\UDP_REDES\UDPSTARTED\PLANTILLA_3PROJECTS\GAMELIB\X64\DEBUG\PLAYER.OBJ
D:\USERS\ABALA\DOCUMENTS\SOURCETREE\UDP_REDES\UDPSTARTED\PLANTILLA_3PROJECTS\GAMELIB\X64\DEBUG\POWERUP.OBJ
